wave file/simulation_results.vcd
$date
	Fri Mar 10 01:30:08 2017
$end
$version
	GTKWave Analyzer v3.3.71 (w)1999-2016 BSI
$end
$timescale
	1 s
$end
$scope module TB $end
$scope module uut_1 $end
$var wire 5 ( eventCounter[4:0] $end
$upscope $end
$scope module uut_2 $end
$var wire 8 ) PWM_INTERFACE[7:0] $end
$upscope $end
$scope module uut $end
$var wire 1 $ busIsBusy $end
$upscope $end
$scope module uut_2 $end
$var wire 5 * eventCounter[4:0] $end
$upscope $end
$scope module uut $end
$var wire 1 # SCK $end
$var wire 1 " SDA $end
$upscope $end
$scope module uut_1 $end
$var wire 8 ' PWM_INTERFACE[7:0] $end
$upscope $end
$scope module uut $end
$var wire 8 % PWM_INTERFACE[7:0] $end
$var wire 5 & eventCounter[4:0] $end
$upscope $end
$upscope $end
$enddefinitions $end
$dumpvars
#0
bx '
b0 &
b0 *
b0 (
bx )
bx %
x"
x#
0$
#5
1#
1"
#6
0"
1$
#7
b1 *
b1 &
b1 (
1"
0#
#8
1#
#9
0#
b10 &
b10 *
b10 (
#10
1#
#11
0#
b11 (
b11 &
b11 *
#12
1#
#13
0#
b100 *
b100 (
b100 &
0"
#14
1#
#15
0#
b101 *
b101 &
b101 (
#16
1#
#17
0#
b110 (
b110 &
b110 *
#18
1#
#19
0#
b111 *
b111 &
b111 (
#20
1#
#21
0#
b1000 (
1"
b1000 &
b1000 *
#22
1#
#23
0#
b10011 *
b10011 (
b1001 &
0"
#24
1#
#25
0#
1"
b1010 &
#26
1#
#27
0#
b1011 &
0"
#28
1#
#29
0#
1"
b1100 &
#30
1#
#31
0#
b1101 &
#32
1#
#33
0#
b1110 &
#34
1#
#35
0#
b1111 &
0"
#36
1#
#37
0#
1"
b10000 &
#38
1#
#39
0#
b10001 &
#40
1#
#41
0#
b10010 &
0"
b10111011 %
#42
1#
#43
0#
1"
b0 &
#44
0"
#45
1#
#47
0$
1"
#63
0"
1$
#64
0#
b1 *
1"
b1 &
b1 (
#65
1#
#66
0#
b10 (
b10 &
b10 *
#67
1#
#68
0#
b11 *
b11 &
b11 (
#69
1#
#70
0#
b100 (
b100 &
b100 *
#71
1#
#72
0#
b101 *
b101 &
b101 (
0"
#73
1#
#74
0#
b110 (
b110 *
b110 &
#75
1#
#76
0#
b111 &
b111 *
b111 (
#77
1#
#78
0#
1"
b1000 (
b1000 *
b1000 &
#79
1#
#80
0#
b10011 &
b10011 *
0"
b1001 (
#81
1#
#82
0#
b1010 (
1"
#83
1#
#84
0#
b1011 (
#85
1#
#86
0#
0"
b1100 (
#87
1#
#88
0#
b1101 (
#89
1#
#90
0#
b1110 (
1"
#91
1#
#92
0#
b1111 (
#93
1#
#94
0#
0"
b10000 (
#95
1#
#96
0#
b10001 (
#97
1#
#98
0#
b10010 (
b11001100 '
#99
1#
#100
0#
b0 (
#102
1#
#104
0$
1"
#120
0"
1$
#121
0#
b1 (
1"
b1 &
b1 *
#122
1#
#123
0#
b10 *
b10 &
b10 (
0"
#124
1#
#125
0#
1"
b11 (
b11 *
b11 &
#126
1#
#127
0#
b100 &
b100 *
0"
b100 (
#128
1#
#129
0#
b101 (
b101 &
b101 *
#130
1#
#131
0#
b110 *
b110 &
b110 (
#132
1#
#133
0#
b111 (
b111 &
b111 *
#134
1#
#135
0#
b1000 *
b1000 &
1"
b1000 (
#136
1#
#137
0#
b10011 (
0"
b1001 *
b10011 &
#138
1#
#139
0#
b1010 *
1"
#140
1#
#141
0#
b1011 *
#142
1#
#143
0#
b1100 *
0"
#144
1#
#145
0#
1"
b1101 *
#146
1#
#147
0#
b1110 *
#148
1#
#149
0#
b1111 *
#150
1#
#151
0#
b10000 *
0"
#152
1#
#153
0#
1"
b10001 *
#154
1#
#155
0#
b11011101 )
b10010 *
0"
#156
1#
#157
0#
1"
b0 *
#158
0"
#159
1#
#161
1"
0$
